…
filterの中にdescがある。これはarr_delayのトップ10を表示している事は分かる。
だが、結果はarr_delayでソートされていない。

arrangeじゃないから当然ではある。

```
> flights %>%
+ select(year, month, day, arr_delay, dep_time) %>%
+ arrange(desc(arr_delay))
# A tibble: 336,776 × 5
    year month   day arr_delay dep_time
   <int> <int> <int>     <dbl>    <int>
 1  2013     1     9      1272      641
 2  2013     6    15      1127     1432
 3  2013     1    10      1109     1121
 4  2013     9    20      1007     1139
 5  2013     7    22       989      845
 6  2013     4    10       931     1100
 7  2013     3    17       915     2321
 8  2013     7    22       895     2257
 9  2013    12     5       878      756
10  2013     5     3       875     1133
# … with 336,766 more rows
```
…
